apb_verification_MS2-MS3_Class/doc/transcript_20_random.txt
Command: /home/tnl3/common/Documents/ECE593/ece593-apb-verification/apb_verification_MS2-MS3_Class/./simv -l run.log -cm line+cond+fsm+tgl+branch -l run.log
Chronologic VCS simulator copyright 1991-2023
Contains Synopsys proprietary information.
Compiler version V-2023.12-SP2_Full64; Runtime version V-2023.12-SP2_Full64;  Apr 30 23:53 2026
[DRIVER] Resetting DUT...
*Verdi* Loading libsscore_vcs202312.so
FSDB Dumper for VCS, Release Verdi_X-2025.06-SP2-1, Linux x86_64/64bit, 01/19/2026
(C) 1996 - 2026 by Synopsys, Inc.
*Verdi* : Create FSDB file 'novas.fsdb'
*Verdi* : Begin traversing the scopes, layer (0).
*Verdi* : End of traversing.
[GENERATOR] STARTED: Executing Tests
[GENERATOR] Starting Random Sequences...
[GENERATOR] FINISHED. Total TX: 20
[DRIVER] STARTED
[DRIVER]		TX#1 (STIMULUS) WRITE / SLAVE=1 REG=8 ADDR=0x000000a0 DATA_IN=0xb63a64fb
[MONITOR_IN] STARTED
[MONITOR_OUT] STARTED
[SCOREBOARD] STARTED
[PROTOCOL_COVERAGE] STARTED
[MONITOR_IN]	TX#1 WRITE / SLAVE=0 REG=0 ADDR=0x000000a0 DATA_IN=0xb63a64fb
[SCOREBOARD]	TX#1 (INPUT) WRITE / SLAVE=1 REG=8 ADDR=0x000000a0 DATA_IN=0xb63a64fb
[DRIVER]		TX#2 (STIMULUS) WRITE / SLAVE=2 REG=1 ADDR=0x00000104 DATA_IN=0x933d1389
[MONITOR_OUT]	TX#1 WRITE / SLAVE=0 REG=0 ADDR=0x000000a0  VALID=0 TRANSFER_STATUS=0
[SCOREBOARD]	TX#1 (OUTPUT) WRITE PASS / SLAVE=1 REG=8 ADDR=0x000000a0 DATA_OUT=0x00000000
[MONITOR_IN]	TX#2 WRITE / SLAVE=0 REG=0 ADDR=0x00000104 DATA_IN=0x933d1389
[SCOREBOARD]	TX#2 (INPUT) WRITE (TIMER) REQUEST / timer[2][1] <= 0x933d1389 at 85
[DRIVER]		TX#3 (STIMULUS) WRITE / SLAVE=2 REG=4 ADDR=0x00000110 DATA_IN=0xb6a92d8a
[MONITOR_OUT]	TX#2 WRITE / SLAVE=0 REG=0 ADDR=0x00000104  VALID=0 TRANSFER_STATUS=0
[SCOREBOARD]	TX#2 (OUTPUT) WRITE PASS / SLAVE=2 REG=1 ADDR=0x00000104 DATA_OUT=0x00000000
[SCOREBOARD]	REF TIMER STARTED: timer[2][1] <= 0x933d138b at 125
[MONITOR_IN]	TX#3 WRITE / SLAVE=0 REG=0 ADDR=0x00000110 DATA_IN=0xb6a92d8a
[SCOREBOARD]	TX#3 (INPUT) WRITE (TIMER) REQUEST / timer[2][4] <= 0xb6a92d8a at 135
[DRIVER]		TX#4 (STIMULUS) WRITE / SLAVE=0 REG=17 ADDR=0x00000044 DATA_IN=0x59563f33
[MONITOR_OUT]	TX#3 WRITE / SLAVE=0 REG=0 ADDR=0x00000110  VALID=0 TRANSFER_STATUS=0
[SCOREBOARD]	TX#3 (OUTPUT) WRITE PASS / SLAVE=2 REG=4 ADDR=0x00000110 DATA_OUT=0x00000000
[SCOREBOARD]	REF TIMER STARTED: timer[2][4] <= 0xb6a92d8c at 175
[MONITOR_IN]	TX#4 WRITE / SLAVE=0 REG=0 ADDR=0x00000044 DATA_IN=0x59563f33
[SCOREBOARD]	TX#4 (INPUT) WRITE / SLAVE=0 REG=17 ADDR=0x00000044 DATA_IN=0x59563f33
[DRIVER]		TX#5 (STIMULUS) WRITE / SLAVE=1 REG=28 ADDR=0x000000f0 DATA_IN=0xc000f498
[MONITOR_OUT]	TX#4 WRITE / SLAVE=0 REG=0 ADDR=0x00000044  VALID=0 TRANSFER_STATUS=0
[SCOREBOARD]	TX#4 (OUTPUT) WRITE PASS / SLAVE=0 REG=17 ADDR=0x00000044 DATA_OUT=0x00000000
[MONITOR_IN]	TX#5 WRITE / SLAVE=0 REG=0 ADDR=0x000000f0 DATA_IN=0xc000f498
[SCOREBOARD]	TX#5 (INPUT) WRITE / SLAVE=1 REG=28 ADDR=0x000000f0 DATA_IN=0xc000f498
[DRIVER]		TX#6 (STIMULUS) WRITE / SLAVE=1 REG=2 ADDR=0x00000088 DATA_IN=0xad320391
[MONITOR_OUT]	TX#5 WRITE / SLAVE=0 REG=0 ADDR=0x000000f0  VALID=0 TRANSFER_STATUS=0
[SCOREBOARD]	TX#5 (OUTPUT) WRITE PASS / SLAVE=1 REG=28 ADDR=0x000000f0 DATA_OUT=0x00000000
[MONITOR_IN]	TX#6 WRITE / SLAVE=0 REG=0 ADDR=0x00000088 DATA_IN=0xad320391
[SCOREBOARD]	TX#6 (INPUT) WRITE / SLAVE=1 REG=2 ADDR=0x00000088 DATA_IN=0xad320391
[DRIVER]		TX#7 (STIMULUS)  READ / SLAVE=2 REG=2 ADDR=0x00000108         
[MONITOR_OUT]	TX#6 WRITE / SLAVE=0 REG=0 ADDR=0x00000088  VALID=0 TRANSFER_STATUS=0
[SCOREBOARD]	TX#6 (OUTPUT) WRITE PASS / SLAVE=1 REG=2 ADDR=0x00000088 DATA_OUT=0x00000000
[MONITOR_IN]	TX#7  READ / SLAVE=0 REG=0 ADDR=0x00000108 
[DRIVER]		TX#8 (STIMULUS) WRITE / SLAVE=2 REG=0 ADDR=0x00000100 DATA_IN=0x75d39002
[MONITOR_OUT]	TX#7  READ / SLAVE=0 REG=0 ADDR=0x00000108 DATA_OUT=0x00000000 VALID=1 TRANSFER_STATUS=0
[SCOREBOARD]	TX#7 (OUTPUT) TIMER PASS / SLAVE=2 REG=2 (expected=0x00000000 actual=0x00000000) elapsed=375 ns
[MONITOR_IN]	TX#8 WRITE / SLAVE=0 REG=0 ADDR=0x00000100 DATA_IN=0x75d39002
[SCOREBOARD]	TX#8 (INPUT) WRITE (TIMER) REQUEST / timer[2][0] <= 0x75d39002 at 385
[DRIVER]		TX#9 (STIMULUS)  READ / SLAVE=1 REG=2 ADDR=0x00000088         
[MONITOR_OUT]	TX#8 WRITE / SLAVE=0 REG=0 ADDR=0x00000100  VALID=0 TRANSFER_STATUS=0
[SCOREBOARD]	TX#8 (OUTPUT) WRITE PASS / SLAVE=2 REG=0 ADDR=0x00000100 DATA_OUT=0x00000000
[SCOREBOARD]	REF TIMER STARTED: timer[2][0] <= 0x75d39004 at 425
[MONITOR_IN]	TX#9  READ / SLAVE=0 REG=0 ADDR=0x00000088 
[DRIVER]		TX#10 (STIMULUS) WRITE / SLAVE=1 REG=17 ADDR=0x000000c4 DATA_IN=0x8923f17b
[MONITOR_OUT]	TX#9  READ / SLAVE=0 REG=0 ADDR=0x00000088 DATA_OUT=0xad320391 VALID=1 TRANSFER_STATUS=0
[SCOREBOARD]	TX#9 (OUTPUT) READ PASS / SLAVE=1 REG=2 ADDR=0x00000088 DATA_OUT=0xad320391
[MONITOR_IN]	TX#10 WRITE / SLAVE=0 REG=0 ADDR=0x000000c4 DATA_IN=0x8923f17b
[SCOREBOARD]	TX#10 (INPUT) WRITE / SLAVE=1 REG=17 ADDR=0x000000c4 DATA_IN=0x8923f17b
[DRIVER]		TX#11 (STIMULUS) WRITE / SLAVE=1 REG=18 ADDR=0x000000c8 DATA_IN=0x00c355b6
[MONITOR_OUT]	TX#10 WRITE / SLAVE=0 REG=0 ADDR=0x000000c4  VALID=0 TRANSFER_STATUS=0
[SCOREBOARD]	TX#10 (OUTPUT) WRITE PASS / SLAVE=1 REG=17 ADDR=0x000000c4 DATA_OUT=0x00000000
[MONITOR_IN]	TX#11 WRITE / SLAVE=0 REG=0 ADDR=0x000000c8 DATA_IN=0x00c355b6
[SCOREBOARD]	TX#11 (INPUT) WRITE / SLAVE=1 REG=18 ADDR=0x000000c8 DATA_IN=0x00c355b6
[DRIVER]		TX#12 (STIMULUS) WRITE / SLAVE=2 REG=4 ADDR=0x00000110 DATA_IN=0xa3598155
[MONITOR_OUT]	TX#11 WRITE / SLAVE=0 REG=0 ADDR=0x000000c8  VALID=0 TRANSFER_STATUS=0
[SCOREBOARD]	TX#11 (OUTPUT) WRITE PASS / SLAVE=1 REG=18 ADDR=0x000000c8 DATA_OUT=0x00000000
[MONITOR_IN]	TX#12 WRITE / SLAVE=0 REG=0 ADDR=0x00000110 DATA_IN=0xa3598155
[SCOREBOARD]	TX#12 (INPUT) WRITE (TIMER) REQUEST / timer[2][4] <= 0xa3598155 at 585
[DRIVER]		TX#13 (STIMULUS)  READ / SLAVE=1 REG=5 ADDR=0x00000094         
[MONITOR_OUT]	TX#12 WRITE / SLAVE=0 REG=0 ADDR=0x00000110  VALID=0 TRANSFER_STATUS=0
[SCOREBOARD]	TX#12 (OUTPUT) WRITE PASS / SLAVE=2 REG=4 ADDR=0x00000110 DATA_OUT=0x00000000
[SCOREBOARD]	REF TIMER STARTED: timer[2][4] <= 0xa3598157 at 625
[MONITOR_IN]	TX#13  READ / SLAVE=0 REG=0 ADDR=0x00000094 
[DRIVER]		TX#14 (STIMULUS)  READ / SLAVE=2 REG=4 ADDR=0x00000110         
[MONITOR_OUT]	TX#13  READ / SLAVE=0 REG=0 ADDR=0x00000094 DATA_OUT=0x00000000 VALID=1 TRANSFER_STATUS=0
[SCOREBOARD]	TX#13 (OUTPUT) READ PASS / SLAVE=1 REG=5 ADDR=0x00000094 DATA_OUT=0x00000000
[MONITOR_IN]	TX#14  READ / SLAVE=0 REG=0 ADDR=0x00000110 
[DRIVER]		TX#15 (STIMULUS) WRITE / SLAVE=1 REG=25 ADDR=0x000000e4 DATA_IN=0xea160af4
[MONITOR_OUT]	TX#14  READ / SLAVE=0 REG=0 ADDR=0x00000110 DATA_OUT=0xa359814d VALID=1 TRANSFER_STATUS=0
[SCOREBOARD]	TX#14 (OUTPUT) TIMER PASS / SLAVE=2 REG=4 (expected=0xa359814d actual=0xa359814d) elapsed=100 ns
[MONITOR_IN]	TX#15 WRITE / SLAVE=0 REG=0 ADDR=0x000000e4 DATA_IN=0xea160af4
[SCOREBOARD]	TX#15 (INPUT) WRITE / SLAVE=1 REG=25 ADDR=0x000000e4 DATA_IN=0xea160af4
[DRIVER]		TX#16 (STIMULUS)  READ / SLAVE=1 REG=4 ADDR=0x00000090         
[MONITOR_OUT]	TX#15 WRITE / SLAVE=0 REG=0 ADDR=0x000000e4  VALID=0 TRANSFER_STATUS=0
[SCOREBOARD]	TX#15 (OUTPUT) WRITE PASS / SLAVE=1 REG=25 ADDR=0x000000e4 DATA_OUT=0x00000000
[MONITOR_IN]	TX#16  READ / SLAVE=0 REG=0 ADDR=0x00000090 
[DRIVER]		TX#17 (STIMULUS) WRITE / SLAVE=0 REG=2 ADDR=0x00000008 DATA_IN=0x55555555
[MONITOR_OUT]	TX#16  READ / SLAVE=0 REG=0 ADDR=0x00000090 DATA_OUT=0x00000000 VALID=1 TRANSFER_STATUS=0
[SCOREBOARD]	TX#16 (OUTPUT) READ PASS / SLAVE=1 REG=4 ADDR=0x00000090 DATA_OUT=0x00000000
[MONITOR_IN]	TX#17 WRITE / SLAVE=0 REG=0 ADDR=0x00000008 DATA_IN=0x55555555
[SCOREBOARD]	TX#17 (INPUT) WRITE / SLAVE=0 REG=2 ADDR=0x00000008 DATA_IN=0x55555555
[DRIVER]		TX#18 (STIMULUS)  READ / SLAVE=2 REG=1 ADDR=0x00000104         
[MONITOR_OUT]	TX#17 WRITE / SLAVE=0 REG=0 ADDR=0x00000008  VALID=0 TRANSFER_STATUS=0
[SCOREBOARD]	TX#17 (OUTPUT) WRITE PASS / SLAVE=0 REG=2 ADDR=0x00000008 DATA_OUT=0x00000000
[MONITOR_IN]	TX#18  READ / SLAVE=0 REG=0 ADDR=0x00000104 
[DRIVER]		TX#19 (STIMULUS) WRITE / SLAVE=1 REG=0 ADDR=0x00000080 DATA_IN=0x2e4902d3
[MONITOR_OUT]	TX#18  READ / SLAVE=0 REG=0 ADDR=0x00000104 DATA_OUT=0x933d133b VALID=1 TRANSFER_STATUS=0
[SCOREBOARD]	TX#18 (OUTPUT) TIMER PASS / SLAVE=2 REG=1 (expected=0x933d133b actual=0x933d133b) elapsed=800 ns
[MONITOR_IN]	TX#19 WRITE / SLAVE=0 REG=0 ADDR=0x00000080 DATA_IN=0x2e4902d3
[SCOREBOARD]	TX#19 (INPUT) WRITE / SLAVE=1 REG=0 ADDR=0x00000080 DATA_IN=0x2e4902d3
[DRIVER]		TX#20 (STIMULUS) WRITE / SLAVE=0 REG=8 ADDR=0x00000020 DATA_IN=0xffffffff
[MONITOR_OUT]	TX#19 WRITE / SLAVE=0 REG=0 ADDR=0x00000080  VALID=0 TRANSFER_STATUS=0
[SCOREBOARD]	TX#19 (OUTPUT) WRITE PASS / SLAVE=1 REG=0 ADDR=0x00000080 DATA_OUT=0x00000000
[MONITOR_IN]	TX#20 WRITE / SLAVE=0 REG=0 ADDR=0x00000020 DATA_IN=0xffffffff
[SCOREBOARD]	TX#20 (INPUT) WRITE / SLAVE=0 REG=8 ADDR=0x00000020 DATA_IN=0xffffffff
[MONITOR_OUT]	TX#20 WRITE / SLAVE=0 REG=0 ADDR=0x00000020  VALID=0 TRANSFER_STATUS=0
[SCOREBOARD]	TX#20 (OUTPUT) WRITE PASS / SLAVE=0 REG=8 ADDR=0x00000020 DATA_OUT=0x00000000

[SCOREBOARD] ===== FINAL REPORT (RANDOM ONLY) =====
[SCOREBOARD] WRITES: PASS=14 FAIL=0
[SCOREBOARD] READS:  PASS=6 FAIL=0
[SCOREBOARD] ILLEGAL TX: PASS=0 FAIL=0
[SCOREBOARD] SLAVE ACCESSES:
[SCOREBOARD]   Slave 0: 3 accesses (WRITES=3 (ERRORS=0) READS=0 (ERRORS=0))
[SCOREBOARD]   Slave 1: 10 accesses (WRITES=7 (ERRORS=0) READS=3 (ERRORS=0))
[SCOREBOARD]   Slave 2: 7 accesses (WRITES=4 (ERRORS=0) READS=3 (ERRORS=0))
[SCOREBOARD] TOTAL ERRORS: 0 | ILLEGAL TX: 0 | TRANSACTIONS VERIFIED: 20
All tests completed. Final Score: 20/20
$finish called from file "CLASS_TB/TEST.sv", line 77.
$finish at simulation time                 1025

---------------------------------------------------------------------------
VCS Coverage Metrics: during simulation line, cond, FSM, branch, tgl was monitored
---------------------------------------------------------------------------
           V C S   S i m u l a t i o n   R e p o r t 
Time: 1025
CPU Time:      0.670 seconds;       Data structure size:   0.1Mb
Thu Apr 30 23:53:02 2026
